{
  "type": "service_account",
  "project_id": "sincere-axon-228806",
  "private_key_id": "af7b09929bf7934b2b05d5cd4ad1cddf40acf3ab",
  "private_key": "-----BEGIN PRIVATE KEY-----\nMIIEvgIBADANBgkqhkiG9w0BAQEFAASCBKgwggSkAgEAAoIBAQDkYKKc7GyOOOnx\n4u1WmJSe0PEzaTMiAN2uyB3INBh6bvWQY3Q0nsH94HUkwR1S8S29lxM/fVeArW+2\ng9vy1PvS+3bIZwWDm4vPwXuq5lX1lXcpT+neenpPXOyK6CViZ5wQbfXEWIW2HuGc\ncvNZFcazg4vZ5WzyDrs+wGaW3foGQsZZTjoWTNF05Ocs6w9nKqYogphp/r8jLks5\nyZewWOrFDBj1Ksi3oRZZdOsfY4MV2mCUpPYQulwlABo5MQba62Es3nkoOTgxE0To\nz5RpJbGs7QnrURPIOpsOcjfXi4/dDxJPDt7ocN2ZKr3cDu6fdd4rDNOoGqd5/Q/R\nUgaQLQ3FAgMBAAECggEAL5FrPXlHMSZsoAvOuJtGVYAaxUUTt/DrO7UF8wXa1WGY\nN29nrHAm4uzmKXYp1/VRPCyj/zTpzW0SmDcF0KIJI8xp1NsUfHGhIPBhhFq+q8zq\niYnSIhtrr20g/dvVsZX4HTnyF2gCzcjH4FDXHAaboRd0wTl2xEJKQQtNMv5gTf4k\n1hQvnurS7hbtqnuzVziZgJ58o+ykMdDbR48xpOls0vq0aEi9Lwq4D5w25iwo2xSf\nmL1t1RmPmisRaGzvNxVUG3AXx5OH73gyGLBO3pbk+VF2jOsiK1Z7uOxsGh/wxDbX\nlXUUGUyXbq6pcI5roHmC/WruamthmkRY7EMCWKv5fwKBgQD3ipy29Q2U9g3FkVOL\nCC+ot3sl65Ve7wBlO/NCJMR35Nsgl1I7GmS8B/fYKqMgYo/Vc4tOfs0eYE9iZH4Q\nhp4yYRt8Sl6yxO6Xabpp7x8+RhAQgjYgbmS4/FhoR4Co0G13bVdE3MEcECPzSqbE\nbkm0kpgxeiP851fYhvtyEXHECwKBgQDsLmJ9LG9LyBFNElND/YlMupdoGK9rWpOx\nV3GfN8lDv78bqV/c9OcTscGqjiXaWuUlsSrI7sKvVmxxcDDHibsC6o1DXmMPBQz4\nuG8SLG0Pv7+ZR8RL7RQsSn22WOCRUojMIhikiAfZGpB4fzMRsSyymBKXXufXR4JD\nuN/6ea5HbwKBgQDCKrnOUN18cJxQ0jNjpOItRu6Tyfx6YKJAxguDYG+zU5IGOGvJ\n7GQDkYR4zMjzyBvmZCFrSs79+rGKDiVMNSu1fLIghf1N4Gb94XLVUTmCkVZcfKaU\nPcNHzrhR43Qp9oNG4D9Jxpa6unZYib/R6Ghr+WjjtliwMY6YSxjEWqaQDQKBgCJb\nxRwsoKxHmKy7o71aXuT4qBoOrUZS0PWVoQPmm7LtbCHcDAQa5Jrq2x+yujL/0iIf\nmffNNClJy1DdX1tH4BrWgGJykrqWo4JzYkUkjWEjJf5ogFgDT1H6LDugxlqdxSTd\nOPSGjY253ZaJ+qXyPmxkzx+SQOwCjSLI/Fx14zKlAoGBAIkH+XAnaznL31kc6HVW\nIFKxbXicBa1ZZT26kGaWHcDLQcm6sdiPO+vjQ7zatmHZ2IdKTJWql6YhoyUk+hzS\nDLvzdYsS5tcl8cv7meStN676DT1JjeZab6PpeIM3FT0B66J5tc0IrEm/G6c+Thqw\nVvu/vEVlsldoIHVS1Fu/SSqq\n-----END PRIVATE KEY-----\n",
  "client_email": "bestpte@sincere-axon-228806.iam.gserviceaccount.com",
  "client_id": "116371512328813168764",
  "auth_uri": "https://accounts.google.com/o/oauth2/auth",
  "token_uri": "https://oauth2.googleapis.com/token",
  "auth_provider_x509_cert_url": "https://www.googleapis.com/oauth2/v1/certs",
  "client_x509_cert_url": "https://www.googleapis.com/robot/v1/metadata/x509/bestpte%40sincere-axon-228806.iam.gserviceaccount.com"
}
